9 3 20
6 4 9
8 4 17
5 7 17
1 8 17
10 4 20
3 6 9
8 3 17
6 6 9
10 5 20
5 5 6
4 1 8
5 2 8
10 9 20
9 3 20
2 2 2
3 8 17
8 10 20
7 4 17
2 1 2
3 3 8
4 8 17
9 5 20
8 7 17
5 10 20
3 10 20
2 8 17
5 5 6
1 1 1
8 7 17
10 9 20
8 8 4
3 7 17
5 1 8
1 2 2
7 8 17
2 9 20
6 9 20
1 4 8
4 6 9
10 9 20
8 5 17
7 4 17
4 2 8
8 5 17
6 4 9
5 3 8
1 2 2
5 3 8
6 2 9
71 78 116
53 42 105
60 28 113
90 63 116
62 52 113
48 37 110
69 64 28
32 34 27
57 72 108
38 28 107
93 98 119
28 75 116
25 76 116
40 100 119
10 19 21
21 57 113
82 21 116
52 41 110
16 61 113
26 85 116
30 93 116
66 63 108
74 67 116
50 26 112
44 72 113
44 45 17
83 50 116
92 18 116
38 71 113
83 74 111
36 49 110
39 90 116
28 28 19
25 95 116
57 67 108
46 42 30
28 30 19
38 57 113
31 23 112
29 92 116
14 69 113
36 93 116
55 96 116
58 67 108
94 49 116
67 60 108
44 30 110
40 63 113
36 97 119
20 82 116
111698 44378 354
84708 178633 383
70662 156421 383
164235 95157 383
112260 36737 354
181278 36426 383
69191 133601 354
12698 81733 351
19393 147126 375
106342 146672 375
71799 116304 354
122632 81632 354
187245 40630 383
193647 142512 383
106708 169104 383
181217 17684 383
155006 174085 383
51615 169776 383
197729 72763 383
102587 11170 351
157000 111341 383
192765 127146 383
88939 194080 383
63473 177770 383
159065 122681 383
80724 81535 320
174755 9884 383
162618 41858 383
15791 122049 354
116942 107046 349
170562 146056 383
44493 140326 354
25150 33905 308
85806 89123 333
45771 97142 351
113757 32421 354
145067 10544 375
57392 94318 351
67821 93685 351
56560 16451 340
20680 143239 375
108462 65584 354
29562 89406 351
131663 160931 383
104218 38841 351
101978 146839 375
14088 156702 383
91479 140497 354
198340 93976 383
36619 118049 354
328257 273997 389
348865 268808 441
288646 358580 441
266450 319031 407
305000 232685 407
393115 319423 441
344126 200387 443
212309 272097 443
241612 242074 275
235354 368061 441
279193 358170 441
365959 288509 441
260497 318313 407
314624 225507 443
259978 348977 441
383466 254221 441
225190 230876 443
338297 329880 366
259832 353469 441
267737 350394 441
295390 331653 384
361176 386543 423
327098 377770 441
296178 330156 384
371014 346961 410
376426 381894 423
303789 298667 371
242672 210907 443
259292 368563 441
334256 374338 441
285414 360123 441
363157 303412 441
209129 332248 443
266669 215025 443
383613 220952 443
391685 344460 441
215507 271849 443
274619 258615 407
366708 322462 441
376787 219947 443
361289 227964 443
232181 340917 407
277423 277784 389
347558 331581 441
210952 214591 373
236567 277821 407
370835 337381 441
327586 208595 443
355288 271808 441
385418 359169 423
