896909 395581 525
248388 163267 443
282634 195401 443
437030 977842 525
59601 692458 509
372062 902085 525
698945 354569 509
381723 780105 509
519053 969533 525
675422 373197 509
619636 227088 470
865332 844113 419
138485 493794 449
291774 244396 407
17698 361287 443
152810 358301 443
712948 803642 468
182185 220747 386
721523 569669 509
104405 613970 470
627776 391663 509
319460 715744 509
577255 687758 509
634511 533142 509
679425 244740 509
806424 218213 509
893301 725673 525
326526 435287 449
58480 876029 525
1578 243030 443
940826 823477 525
249446 585105 470
89717 816590 509
592355 398899 470
876771 25308 525
980558 495792 525
32610 119317 354
197221 714661 509
471164 884797 525
6904 103174 351
71646 912916 525
927900 497133 525
502184 968407 525
542656 746733 509
721210 798252 468
257184 388706 441
244467 367883 441
135623 659913 509
561853 465560 470
137086 402205 443
30508 214382 383
196741 394746 443
121402 285093 443
759198 37423 509
537515 784927 509
62031 171626 383
389134 685693 509
705455 297631 509
899810 809055 525
626985 108720 509
96939 452632 449
718350 482651 509
264075 781590 509
946799 565764 525
322174 771759 509
305656 692815 509
360720 265164 441
48025 901792 525
202659 755406 509
753722 214676 509
717112 284402 509
780845 452637 509
860969 310148 525
655252 156298 509
351470 825998 509
949022 965989 414
514096 115959 470
973697 195287 525
993320 368445 525
802788 70691 509
412439 781937 509
174676 459604 449
722460 200093 509
460873 319463 449
246513 88644 443
732774 330445 509
662106 787371 504
405241 813421 509
681390 440882 509
491465 811605 509
508269 26307 449
790672 65166 509
458710 28874 449
39143 162226 383
210269 416642 449
284553 611530 470
664752 532746 509
638641 684468 442
445195 861311 525
129222 432539 449
89396 142262 354
713161 60600 509
460345 576975 470
331770 529360 470
777119 2344 509
423025 629831 509
911142 332069 525
504011 248214 449
430329 996596 525
948424 658337 525
332797 406542 441
481550 573130 470
766250 136745 509
624831 83580 470
257831 506448 449
754589 341804 509
106876 571491 470
830881 850283 525
566005 202991 470
697075 31963 509
356691 520028 470
917769 331395 525
529946 818168 509
504584 420816 444
760199 520348 509
101744 32403 351
653381 589755 509
43826 162948 383
328229 139303 443
129599 841756 525
63766 337140 443
976778 28146 525
531566 307467 470
356414 668958 509
963162 175441 525
714298 710510 411
112523 734842 509
290835 847063 525
921500 213744 525
913276 308164 525
150612 993928 525
38843 545066 470
528070 316752 470
22457 452696 449
409638 68267 443
34295 420722 449
475041 623330 470
874601 969218 507
100204 429186 449
596782 336273 470
696077 678306 442
501982 79059 449
969431 701801 525
606957 358164 470
326008 8266 443
219718 513530 470
413196 142741 449
710642 782542 468
620193 883466 525
653607 495200 509
833523 263659 509
877760 963012 507
606384 62057 470
912914 431888 525
812582 96705 509
54340 927924 525
135782 51876 354
934894 422403 525
288095 809610 509
757547 848193 525
952100 383375 525
895647 98854 525
116457 462303 449
399792 987320 525
305849 991066 525
882472 796566 525
194926 148223 383
510401 362345 449
965408 874152 507
72769 748504 509
196569 639373 509
170600 14657 383
29109 710250 509
41342 642878 509
203444 852721 525
120637 22730 354
410038 964911 525
770792 872002 525
127482 742646 509
936351 435915 525
302135 459242 449
154975 528144 470
384813 714953 509
550946 286454 470
70307 784109 509
773603 255756 509
770829 298718 509
153686 273077 443
143265 28341 375
750717 409196 509
331 453 134
803 662 171
428 588 142
920 425 179
527 908 179
42 249 128
633 131 144
262 839 171
785 90 171
507 657 145
763 68 171
323 526 144
451 97 144
568 514 137
938 432 179
210 21 125
118 586 144
686 953 179
132 158 117
266 388 144
579 695 145
139 534 144
362 19 144
417 926 179
687 51 145
468 104 144
531 691 145
412 117 144
870 950 179
314 572 144
880 394 179
713 834 153
747 70 171
963 573 179
199 486 144
962 534 179
169 59 122
146 800 171
246 884 179
27 283 128
318 774 171
460 523 142
86 95 106
580 847 171
563 67 144
431 873 179
250 948 179
475 242 144
929 907 130
909 996 174
10 10 7
